module gitlab.com/kamikazechaser/cic-k8s/microservices/eth-signer

go 1.16

require (
	github.com/StackExchange/wmi v1.2.1 // indirect
	github.com/btcsuite/btcd v0.22.0-beta // indirect
	github.com/deckarep/golang-set v1.7.1 // indirect
	github.com/ethereum/go-ethereum v1.10.8
	github.com/go-stack/stack v1.8.1 // indirect
	github.com/gorilla/mux v1.8.0
	github.com/shirou/gopsutil v3.21.8+incompatible // indirect
	github.com/tklauser/go-sysconf v0.3.9 // indirect
	golang.org/x/crypto v0.0.0-20210817164053-32db794688a5 // indirect
	golang.org/x/sys v0.0.0-20210906170528-6f6e22806c34 // indirect
)
